%!PS-Adobe-3.0 EPSF-3.0
%%Creator: (MATLAB, The Mathworks, Inc. Version 8.5.0.197613 \(R2015a\). Operating System: Windows 8)
%%Title: (C:/Users/Marwen/Dropbox/UCI/courses/DET_EST_DEM_ THEORY/homeworks/Project/Project/Latex/Figures/Observed_FDP_marginal.eps)
%%CreationDate: 2015-12-13T13:19:17
%%Pages: (atend)
%%BoundingBox: 0 0 420 315
%%LanguageLevel: 2
%%EndComments
%%BeginProlog
%%BeginResource: procset (Apache XML Graphics Std ProcSet) 1.2 0
%%Version: 1.2 0
%%Copyright: (Copyright 2001-2003,2010 The Apache Software Foundation. License terms: http://www.apache.org/licenses/LICENSE-2.0)
/bd{bind def}bind def
/ld{load def}bd
/GR/grestore ld
/M/moveto ld
/LJ/setlinejoin ld
/C/curveto ld
/f/fill ld
/LW/setlinewidth ld
/GC/setgray ld
/t/show ld
/N/newpath ld
/CT/concat ld
/cp/closepath ld
/S/stroke ld
/L/lineto ld
/CC/setcmykcolor ld
/A/ashow ld
/GS/gsave ld
/RC/setrgbcolor ld
/RM/rmoveto ld
/ML/setmiterlimit ld
/re {4 2 roll M
1 index 0 rlineto
0 exch rlineto
neg 0 rlineto
cp } bd
/_ctm matrix def
/_tm matrix def
/BT { _ctm currentmatrix pop matrix _tm copy pop 0 0 moveto } bd
/ET { _ctm setmatrix } bd
/iTm { _ctm setmatrix _tm concat } bd
/Tm { _tm astore pop iTm 0 0 moveto } bd
/ux 0.0 def
/uy 0.0 def
/F {
  /Tp exch def
  /Tf exch def
  Tf findfont Tp scalefont setfont
  /cf Tf def  /cs Tp def
} bd
/ULS {currentpoint /uy exch def /ux exch def} bd
/ULE {
  /Tcx currentpoint pop def
  gsave
  newpath
  cf findfont cs scalefont dup
  /FontMatrix get 0 get /Ts exch def /FontInfo get dup
  /UnderlinePosition get Ts mul /To exch def
  /UnderlineThickness get Ts mul /Tt exch def
  ux uy To add moveto  Tcx uy To add lineto
  Tt setlinewidth stroke
  grestore
} bd
/OLE {
  /Tcx currentpoint pop def
  gsave
  newpath
  cf findfont cs scalefont dup
  /FontMatrix get 0 get /Ts exch def /FontInfo get dup
  /UnderlinePosition get Ts mul /To exch def
  /UnderlineThickness get Ts mul /Tt exch def
  ux uy To add cs add moveto Tcx uy To add cs add lineto
  Tt setlinewidth stroke
  grestore
} bd
/SOE {
  /Tcx currentpoint pop def
  gsave
  newpath
  cf findfont cs scalefont dup
  /FontMatrix get 0 get /Ts exch def /FontInfo get dup
  /UnderlinePosition get Ts mul /To exch def
  /UnderlineThickness get Ts mul /Tt exch def
  ux uy To add cs 10 mul 26 idiv add moveto Tcx uy To add cs 10 mul 26 idiv add lineto
  Tt setlinewidth stroke
  grestore
} bd
/QT {
/Y22 exch store
/X22 exch store
/Y21 exch store
/X21 exch store
currentpoint
/Y21 load 2 mul add 3 div exch
/X21 load 2 mul add 3 div exch
/X21 load 2 mul /X22 load add 3 div
/Y21 load 2 mul /Y22 load add 3 div
/X22 load /Y22 load curveto
} bd
/SSPD {
dup length /d exch dict def
{
/v exch def
/k exch def
currentpagedevice k known {
/cpdv currentpagedevice k get def
v cpdv ne {
/upd false def
/nullv v type /nulltype eq def
/nullcpdv cpdv type /nulltype eq def
nullv nullcpdv or
{
/upd true def
} {
/sametype v type cpdv type eq def
sametype {
v type /arraytype eq {
/vlen v length def
/cpdvlen cpdv length def
vlen cpdvlen eq {
0 1 vlen 1 sub {
/i exch def
/obj v i get def
/cpdobj cpdv i get def
obj cpdobj ne {
/upd true def
exit
} if
} for
} {
/upd true def
} ifelse
} {
v type /dicttype eq {
v {
/dv exch def
/dk exch def
/cpddv cpdv dk get def
dv cpddv ne {
/upd true def
exit
} if
} forall
} {
/upd true def
} ifelse
} ifelse
} if
} ifelse
upd true eq {
d k v put
} if
} if
} if
} forall
d length 0 gt {
d setpagedevice
} if
} bd
%%EndResource
%%BeginResource: procset (Apache XML Graphics EPS ProcSet) 1.0 0
%%Version: 1.0 0
%%Copyright: (Copyright 2002-2003 The Apache Software Foundation. License terms: http://www.apache.org/licenses/LICENSE-2.0)
/BeginEPSF { %def
/b4_Inc_state save def         % Save state for cleanup
/dict_count countdictstack def % Count objects on dict stack
/op_count count 1 sub def      % Count objects on operand stack
userdict begin                 % Push userdict on dict stack
/showpage { } def              % Redefine showpage, { } = null proc
0 setgray 0 setlinecap         % Prepare graphics state
1 setlinewidth 0 setlinejoin
10 setmiterlimit [ ] 0 setdash newpath
/languagelevel where           % If level not equal to 1 then
{pop languagelevel             % set strokeadjust and
1 ne                           % overprint to their defaults.
{false setstrokeadjust false setoverprint
} if
} if
} bd
/EndEPSF { %def
count op_count sub {pop} repeat            % Clean up stacks
countdictstack dict_count sub {end} repeat
b4_Inc_state restore
} bd
%%EndResource
%FOPBeginFontDict
%%IncludeResource: font Courier-Bold
%%IncludeResource: font Helvetica
%%IncludeResource: font Courier-BoldOblique
%%IncludeResource: font Courier-Oblique
%%IncludeResource: font Times-Roman
%%IncludeResource: font Helvetica-BoldOblique
%%IncludeResource: font Helvetica-Bold
%%IncludeResource: font Helvetica-Oblique
%%IncludeResource: font Times-BoldItalic
%%IncludeResource: font Courier
%%IncludeResource: font Times-Italic
%%IncludeResource: font Times-Bold
%%IncludeResource: font Symbol
%%IncludeResource: font ZapfDingbats
%FOPEndFontDict
%%BeginResource: encoding WinAnsiEncoding
/WinAnsiEncoding [
/.notdef /.notdef /.notdef /.notdef /.notdef
/.notdef /.notdef /.notdef /.notdef /.notdef
/.notdef /.notdef /.notdef /.notdef /.notdef
/.notdef /.notdef /.notdef /.notdef /.notdef
/.notdef /.notdef /.notdef /.notdef /.notdef
/.notdef /.notdef /.notdef /.notdef /.notdef
/.notdef /.notdef /space /exclam /quotedbl
/numbersign /dollar /percent /ampersand /quotesingle
/parenleft /parenright /asterisk /plus /comma
/hyphen /period /slash /zero /one
/two /three /four /five /six
/seven /eight /nine /colon /semicolon
/less /equal /greater /question /at
/A /B /C /D /E
/F /G /H /I /J
/K /L /M /N /O
/P /Q /R /S /T
/U /V /W /X /Y
/Z /bracketleft /backslash /bracketright /asciicircum
/underscore /quoteleft /a /b /c
/d /e /f /g /h
/i /j /k /l /m
/n /o /p /q /r
/s /t /u /v /w
/x /y /z /braceleft /bar
/braceright /asciitilde /bullet /Euro /bullet
/quotesinglbase /florin /quotedblbase /ellipsis /dagger
/daggerdbl /circumflex /perthousand /Scaron /guilsinglleft
/OE /bullet /Zcaron /bullet /bullet
/quoteleft /quoteright /quotedblleft /quotedblright /bullet
/endash /emdash /asciitilde /trademark /scaron
/guilsinglright /oe /bullet /zcaron /Ydieresis
/space /exclamdown /cent /sterling /currency
/yen /brokenbar /section /dieresis /copyright
/ordfeminine /guillemotleft /logicalnot /sfthyphen /registered
/macron /degree /plusminus /twosuperior /threesuperior
/acute /mu /paragraph /middot /cedilla
/onesuperior /ordmasculine /guillemotright /onequarter /onehalf
/threequarters /questiondown /Agrave /Aacute /Acircumflex
/Atilde /Adieresis /Aring /AE /Ccedilla
/Egrave /Eacute /Ecircumflex /Edieresis /Igrave
/Iacute /Icircumflex /Idieresis /Eth /Ntilde
/Ograve /Oacute /Ocircumflex /Otilde /Odieresis
/multiply /Oslash /Ugrave /Uacute /Ucircumflex
/Udieresis /Yacute /Thorn /germandbls /agrave
/aacute /acircumflex /atilde /adieresis /aring
/ae /ccedilla /egrave /eacute /ecircumflex
/edieresis /igrave /iacute /icircumflex /idieresis
/eth /ntilde /ograve /oacute /ocircumflex
/otilde /odieresis /divide /oslash /ugrave
/uacute /ucircumflex /udieresis /yacute /thorn
/ydieresis
] def
%%EndResource
%FOPBeginFontReencode
/Courier-Bold findfont
dup length dict begin
  {1 index /FID ne {def} {pop pop} ifelse} forall
  /Encoding WinAnsiEncoding def
  currentdict
end
/Courier-Bold exch definefont pop
/Helvetica findfont
dup length dict begin
  {1 index /FID ne {def} {pop pop} ifelse} forall
  /Encoding WinAnsiEncoding def
  currentdict
end
/Helvetica exch definefont pop
/Courier-BoldOblique findfont
dup length dict begin
  {1 index /FID ne {def} {pop pop} ifelse} forall
  /Encoding WinAnsiEncoding def
  currentdict
end
/Courier-BoldOblique exch definefont pop
/Courier-Oblique findfont
dup length dict begin
  {1 index /FID ne {def} {pop pop} ifelse} forall
  /Encoding WinAnsiEncoding def
  currentdict
end
/Courier-Oblique exch definefont pop
/Times-Roman findfont
dup length dict begin
  {1 index /FID ne {def} {pop pop} ifelse} forall
  /Encoding WinAnsiEncoding def
  currentdict
end
/Times-Roman exch definefont pop
/Helvetica-BoldOblique findfont
dup length dict begin
  {1 index /FID ne {def} {pop pop} ifelse} forall
  /Encoding WinAnsiEncoding def
  currentdict
end
/Helvetica-BoldOblique exch definefont pop
/Helvetica-Bold findfont
dup length dict begin
  {1 index /FID ne {def} {pop pop} ifelse} forall
  /Encoding WinAnsiEncoding def
  currentdict
end
/Helvetica-Bold exch definefont pop
/Helvetica-Oblique findfont
dup length dict begin
  {1 index /FID ne {def} {pop pop} ifelse} forall
  /Encoding WinAnsiEncoding def
  currentdict
end
/Helvetica-Oblique exch definefont pop
/Times-BoldItalic findfont
dup length dict begin
  {1 index /FID ne {def} {pop pop} ifelse} forall
  /Encoding WinAnsiEncoding def
  currentdict
end
/Times-BoldItalic exch definefont pop
/Courier findfont
dup length dict begin
  {1 index /FID ne {def} {pop pop} ifelse} forall
  /Encoding WinAnsiEncoding def
  currentdict
end
/Courier exch definefont pop
/Times-Italic findfont
dup length dict begin
  {1 index /FID ne {def} {pop pop} ifelse} forall
  /Encoding WinAnsiEncoding def
  currentdict
end
/Times-Italic exch definefont pop
/Times-Bold findfont
dup length dict begin
  {1 index /FID ne {def} {pop pop} ifelse} forall
  /Encoding WinAnsiEncoding def
  currentdict
end
/Times-Bold exch definefont pop
%FOPEndFontReencode
%%EndProlog
%%Page: 1 1
%%PageBoundingBox: 0 0 420 315
%%BeginPageSetup
[1 0 0 -1 0 315] CT
%%EndPageSetup
GS
[0.75 0 0 0.75 0 0] CT
1 GC
N
0 0 560 420 re
f
GR
GS
[0.75 0 0 0.75 0 0] CT
1 GC
N
0 0 560 420 re
f
GR
GS
[0.75 0 0 0.75 0 0] CT
1 GC
N
73 374 M
507 374 L
507 31 L
73 31 L
cp
f
GR
GS
[0.75 0 0 0.75 217.50016 298.24999] CT
0.149 GC
/Helvetica 15 F
GS
[1 0 0 1 0 0] CT
-15 16 moveto 
1 -1 scale
(FDP) t 
GR
GR
GS
[0.75 0 0 0.75 0 0] CT
0.149 GC
2 setlinecap
10.0 ML
N
73 374 M
507 374 L
S
GR
GS
[0.75 0 0 0.75 0 0] CT
0.149 GC
2 setlinecap
10.0 ML
N
73 31 M
507 31 L
S
GR
GS
[0.75 0 0 0.75 0 0] CT
0.149 GC
2 setlinecap
10.0 ML
N
73 374 M
73 369.66 L
S
GR
GS
[0.75 0 0 0.75 0 0] CT
0.149 GC
2 setlinecap
10.0 ML
N
116.4 374 M
116.4 369.66 L
S
GR
GS
[0.75 0 0 0.75 0 0] CT
0.149 GC
2 setlinecap
10.0 ML
N
159.8 374 M
159.8 369.66 L
S
GR
GS
[0.75 0 0 0.75 0 0] CT
0.149 GC
2 setlinecap
10.0 ML
N
203.2 374 M
203.2 369.66 L
S
GR
GS
[0.75 0 0 0.75 0 0] CT
0.149 GC
2 setlinecap
10.0 ML
N
246.6 374 M
246.6 369.66 L
S
GR
GS
[0.75 0 0 0.75 0 0] CT
0.149 GC
2 setlinecap
10.0 ML
N
290 374 M
290 369.66 L
S
GR
GS
[0.75 0 0 0.75 0 0] CT
0.149 GC
2 setlinecap
10.0 ML
N
333.4 374 M
333.4 369.66 L
S
GR
GS
[0.75 0 0 0.75 0 0] CT
0.149 GC
2 setlinecap
10.0 ML
N
376.8 374 M
376.8 369.66 L
S
GR
GS
[0.75 0 0 0.75 0 0] CT
0.149 GC
2 setlinecap
10.0 ML
N
420.2 374 M
420.2 369.66 L
S
GR
GS
[0.75 0 0 0.75 0 0] CT
0.149 GC
2 setlinecap
10.0 ML
N
463.6 374 M
463.6 369.66 L
S
GR
GS
[0.75 0 0 0.75 0 0] CT
0.149 GC
2 setlinecap
10.0 ML
N
507 374 M
507 369.66 L
S
GR
GS
[0.75 0 0 0.75 0 0] CT
0.149 GC
2 setlinecap
10.0 ML
N
73 31 M
73 35.34 L
S
GR
GS
[0.75 0 0 0.75 0 0] CT
0.149 GC
2 setlinecap
10.0 ML
N
116.4 31 M
116.4 35.34 L
S
GR
GS
[0.75 0 0 0.75 0 0] CT
0.149 GC
2 setlinecap
10.0 ML
N
159.8 31 M
159.8 35.34 L
S
GR
GS
[0.75 0 0 0.75 0 0] CT
0.149 GC
2 setlinecap
10.0 ML
N
203.2 31 M
203.2 35.34 L
S
GR
GS
[0.75 0 0 0.75 0 0] CT
0.149 GC
2 setlinecap
10.0 ML
N
246.6 31 M
246.6 35.34 L
S
GR
GS
[0.75 0 0 0.75 0 0] CT
0.149 GC
2 setlinecap
10.0 ML
N
290 31 M
290 35.34 L
S
GR
GS
[0.75 0 0 0.75 0 0] CT
0.149 GC
2 setlinecap
10.0 ML
N
333.4 31 M
333.4 35.34 L
S
GR
GS
[0.75 0 0 0.75 0 0] CT
0.149 GC
2 setlinecap
10.0 ML
N
376.8 31 M
376.8 35.34 L
S
GR
GS
[0.75 0 0 0.75 0 0] CT
0.149 GC
2 setlinecap
10.0 ML
N
420.2 31 M
420.2 35.34 L
S
GR
GS
[0.75 0 0 0.75 0 0] CT
0.149 GC
2 setlinecap
10.0 ML
N
463.6 31 M
463.6 35.34 L
S
GR
GS
[0.75 0 0 0.75 0 0] CT
0.149 GC
2 setlinecap
10.0 ML
N
507 31 M
507 35.34 L
S
GR
GS
[0.75 0 0 0.75 54.75 284.50001] CT
0.149 GC
/Helvetica 13 F
GS
[1 0 0 1 0 0] CT
-4 14 moveto 
1 -1 scale
(0) t 
GR
GR
GS
[0.75 0 0 0.75 87.3 284.50001] CT
0.149 GC
/Helvetica 13 F
GS
[1 0 0 1 0 0] CT
-9.5 14 moveto 
1 -1 scale
(0.1) t 
GR
GR
GS
[0.75 0 0 0.75 119.85 284.50001] CT
0.149 GC
/Helvetica 13 F
GS
[1 0 0 1 0 0] CT
-9.5 14 moveto 
1 -1 scale
(0.2) t 
GR
GR
GS
[0.75 0 0 0.75 152.40001 284.50001] CT
0.149 GC
/Helvetica 13 F
GS
[1 0 0 1 0 0] CT
-9.5 14 moveto 
1 -1 scale
(0.3) t 
GR
GR
GS
[0.75 0 0 0.75 184.95 284.50001] CT
0.149 GC
/Helvetica 13 F
GS
[1 0 0 1 0 0] CT
-9.5 14 moveto 
1 -1 scale
(0.4) t 
GR
GR
GS
[0.75 0 0 0.75 217.5 284.50001] CT
0.149 GC
/Helvetica 13 F
GS
[1 0 0 1 0 0] CT
-9.5 14 moveto 
1 -1 scale
(0.5) t 
GR
GR
GS
[0.75 0 0 0.75 250.05002 284.50001] CT
0.149 GC
/Helvetica 13 F
GS
[1 0 0 1 0 0] CT
-9.5 14 moveto 
1 -1 scale
(0.6) t 
GR
GR
GS
[0.75 0 0 0.75 282.59999 284.50001] CT
0.149 GC
/Helvetica 13 F
GS
[1 0 0 1 0 0] CT
-9.5 14 moveto 
1 -1 scale
(0.7) t 
GR
GR
GS
[0.75 0 0 0.75 315.15001 284.50001] CT
0.149 GC
/Helvetica 13 F
GS
[1 0 0 1 0 0] CT
-9.5 14 moveto 
1 -1 scale
(0.8) t 
GR
GR
GS
[0.75 0 0 0.75 347.69998 284.50001] CT
0.149 GC
/Helvetica 13 F
GS
[1 0 0 1 0 0] CT
-9.5 14 moveto 
1 -1 scale
(0.9) t 
GR
GR
GS
[0.75 0 0 0.75 380.25 284.50001] CT
0.149 GC
/Helvetica 13 F
GS
[1 0 0 1 0 0] CT
-4 14 moveto 
1 -1 scale
(1) t 
GR
GR
GS
[0 -0.75 0.75 0 31.25 151.87489] CT
0.149 GC
/Helvetica 15 F
GS
[1 0 0 1 0 0] CT
-35.5 -4 moveto 
1 -1 scale
(Frequency) t 
GR
GR
GS
[0.75 0 0 0.75 0 0] CT
0.149 GC
2 setlinecap
10.0 ML
N
73 374 M
73 31 L
S
GR
GS
[0.75 0 0 0.75 0 0] CT
0.149 GC
2 setlinecap
10.0 ML
N
507 374 M
507 31 L
S
GR
GS
[0.75 0 0 0.75 0 0] CT
0.149 GC
2 setlinecap
10.0 ML
N
73 374 M
77.34 374 L
S
GR
GS
[0.75 0 0 0.75 0 0] CT
0.149 GC
2 setlinecap
10.0 ML
N
73 331.125 M
77.34 331.125 L
S
GR
GS
[0.75 0 0 0.75 0 0] CT
0.149 GC
2 setlinecap
10.0 ML
N
73 288.25 M
77.34 288.25 L
S
GR
GS
[0.75 0 0 0.75 0 0] CT
0.149 GC
2 setlinecap
10.0 ML
N
73 245.375 M
77.34 245.375 L
S
GR
GS
[0.75 0 0 0.75 0 0] CT
0.149 GC
2 setlinecap
10.0 ML
N
73 202.5 M
77.34 202.5 L
S
GR
GS
[0.75 0 0 0.75 0 0] CT
0.149 GC
2 setlinecap
10.0 ML
N
73 159.625 M
77.34 159.625 L
S
GR
GS
[0.75 0 0 0.75 0 0] CT
0.149 GC
2 setlinecap
10.0 ML
N
73 116.75 M
77.34 116.75 L
S
GR
GS
[0.75 0 0 0.75 0 0] CT
0.149 GC
2 setlinecap
10.0 ML
N
73 73.875 M
77.34 73.875 L
S
GR
GS
[0.75 0 0 0.75 0 0] CT
0.149 GC
2 setlinecap
10.0 ML
N
73 31 M
77.34 31 L
S
GR
GS
[0.75 0 0 0.75 0 0] CT
0.149 GC
2 setlinecap
10.0 ML
N
507 374 M
502.66 374 L
S
GR
GS
[0.75 0 0 0.75 0 0] CT
0.149 GC
2 setlinecap
10.0 ML
N
507 331.125 M
502.66 331.125 L
S
GR
GS
[0.75 0 0 0.75 0 0] CT
0.149 GC
2 setlinecap
10.0 ML
N
507 288.25 M
502.66 288.25 L
S
GR
GS
[0.75 0 0 0.75 0 0] CT
0.149 GC
2 setlinecap
10.0 ML
N
507 245.375 M
502.66 245.375 L
S
GR
GS
[0.75 0 0 0.75 0 0] CT
0.149 GC
2 setlinecap
10.0 ML
N
507 202.5 M
502.66 202.5 L
S
GR
GS
[0.75 0 0 0.75 0 0] CT
0.149 GC
2 setlinecap
10.0 ML
N
507 159.625 M
502.66 159.625 L
S
GR
GS
[0.75 0 0 0.75 0 0] CT
0.149 GC
2 setlinecap
10.0 ML
N
507 116.75 M
502.66 116.75 L
S
GR
GS
[0.75 0 0 0.75 0 0] CT
0.149 GC
2 setlinecap
10.0 ML
N
507 73.875 M
502.66 73.875 L
S
GR
GS
[0.75 0 0 0.75 0 0] CT
0.149 GC
2 setlinecap
10.0 ML
N
507 31 M
502.66 31 L
S
GR
GS
[0.75 0 0 0.75 50.75 280.5] CT
0.149 GC
/Helvetica 13 F
GS
[1 0 0 1 0 0] CT
-8 5.5 moveto 
1 -1 scale
(0) t 
GR
GR
GS
[0.75 0 0 0.75 50.75 248.34375] CT
0.149 GC
/Helvetica 13 F
GS
[1 0 0 1 0 0] CT
-15 5.5 moveto 
1 -1 scale
(50) t 
GR
GR
GS
[0.75 0 0 0.75 50.75 216.1875] CT
0.149 GC
/Helvetica 13 F
GS
[1 0 0 1 0 0] CT
-22 5.5 moveto 
1 -1 scale
(100) t 
GR
GR
GS
[0.75 0 0 0.75 50.75 184.03125] CT
0.149 GC
/Helvetica 13 F
GS
[1 0 0 1 0 0] CT
-22 5.5 moveto 
1 -1 scale
(150) t 
GR
GR
GS
[0.75 0 0 0.75 50.75 151.875] CT
0.149 GC
/Helvetica 13 F
GS
[1 0 0 1 0 0] CT
-22 5.5 moveto 
1 -1 scale
(200) t 
GR
GR
GS
[0.75 0 0 0.75 50.75 119.71875] CT
0.149 GC
/Helvetica 13 F
GS
[1 0 0 1 0 0] CT
-22 5.5 moveto 
1 -1 scale
(250) t 
GR
GR
GS
[0.75 0 0 0.75 50.75 87.5625] CT
0.149 GC
/Helvetica 13 F
GS
[1 0 0 1 0 0] CT
-22 5.5 moveto 
1 -1 scale
(300) t 
GR
GR
GS
[0.75 0 0 0.75 50.75 55.40625] CT
0.149 GC
/Helvetica 13 F
GS
[1 0 0 1 0 0] CT
-22 5.5 moveto 
1 -1 scale
(350) t 
GR
GR
GS
[0.75 0 0 0.75 50.75 23.25] CT
0.149 GC
/Helvetica 13 F
GS
[1 0 0 1 0 0] CT
-22 5.5 moveto 
1 -1 scale
(400) t 
GR
GR
GS
[0.75 0 0 0.75 0 0] CT
0.4 0.668 0.845 RC
N
73 374 M
73 41.29 L
81.68 41.29 L
81.68 374 L
cp
f
GR
GS
[0.75 0 0 0.75 0 0] CT
0.4 0.668 0.845 RC
N
81.68 374 M
81.68 351.705 L
90.36 351.705 L
90.36 374 L
cp
f
GR
GS
[0.75 0 0 0.75 0 0] CT
0.4 0.668 0.845 RC
N
90.36 374 M
90.36 361.995 L
99.04 361.995 L
99.04 374 L
cp
f
GR
GS
[0.75 0 0 0.75 0 0] CT
0.4 0.668 0.845 RC
N
99.04 374 M
99.04 367.997 L
107.72 367.997 L
107.72 374 L
cp
f
GR
GS
[0.75 0 0 0.75 0 0] CT
0.4 0.668 0.845 RC
N
107.72 374 M
107.72 369.712 L
116.4 369.712 L
116.4 374 L
cp
f
GR
GS
[0.75 0 0 0.75 0 0] CT
0.4 0.668 0.845 RC
N
116.4 374 M
116.4 367.14 L
125.08 367.14 L
125.08 374 L
cp
f
GR
GS
[0.75 0 0 0.75 0 0] CT
0.4 0.668 0.845 RC
N
125.08 374 M
125.08 368.855 L
133.76 368.855 L
133.76 374 L
cp
f
GR
GS
[0.75 0 0 0.75 0 0] CT
0.4 0.668 0.845 RC
N
133.76 374 M
133.76 369.712 L
142.44 369.712 L
142.44 374 L
cp
f
GR
GS
[0.75 0 0 0.75 0 0] CT
0.4 0.668 0.845 RC
N
142.44 374 M
142.44 373.142 L
151.12 373.142 L
151.12 374 L
cp
f
GR
GS
[0.75 0 0 0.75 0 0] CT
0.4 0.668 0.845 RC
N
151.12 374 M
151.12 370.57 L
159.8 370.57 L
159.8 374 L
cp
f
GR
GS
[0.75 0 0 0.75 0 0] CT
0.4 0.668 0.845 RC
N
159.8 374 M
159.8 373.142 L
168.48 373.142 L
168.48 374 L
cp
f
GR
GS
[0.75 0 0 0.75 0 0] CT
0.4 0.668 0.845 RC
N
168.48 374 M
168.48 372.285 L
177.16 372.285 L
177.16 374 L
cp
f
GR
GS
[0.75 0 0 0.75 0 0] CT
0.4 0.668 0.845 RC
N
177.16 374 M
177.16 373.142 L
185.84 373.142 L
185.84 374 L
cp
f
GR
GS
[0.75 0 0 0.75 0 0] CT
0.4 0.668 0.845 RC
N
185.84 374 M
185.84 373.142 L
194.52 373.142 L
194.52 374 L
cp
f
GR
GS
[0.75 0 0 0.75 0 0] CT
0.4 0.668 0.845 RC
N
194.52 374 M
194.52 373.142 L
203.2 373.142 L
203.2 374 L
cp
f
GR
GS
[0.75 0 0 0.75 0 0] CT
0.4 0.668 0.845 RC
N
203.2 374 M
203.2 372.285 L
211.88 372.285 L
211.88 374 L
cp
f
GR
GS
[0.75 0 0 0.75 0 0] CT
0.4 0.668 0.845 RC
N
211.88 374 M
211.88 374 L
220.56 374 L
220.56 374 L
cp
f
GR
GS
[0.75 0 0 0.75 0 0] CT
0.4 0.668 0.845 RC
N
220.56 374 M
220.56 374 L
229.24 374 L
229.24 374 L
cp
f
GR
GS
[0.75 0 0 0.75 0 0] CT
0.4 0.668 0.845 RC
N
229.24 374 M
229.24 373.142 L
237.92 373.142 L
237.92 374 L
cp
f
GR
GS
[0.75 0 0 0.75 0 0] CT
0.4 0.668 0.845 RC
N
237.92 374 M
237.92 373.142 L
246.6 373.142 L
246.6 374 L
cp
f
GR
GS
[0.75 0 0 0.75 0 0] CT
0.4 0.668 0.845 RC
N
246.6 374 M
246.6 373.142 L
255.28 373.142 L
255.28 374 L
cp
f
GR
GS
[0.75 0 0 0.75 0 0] CT
0.4 0.668 0.845 RC
N
255.28 374 M
255.28 372.285 L
263.96 372.285 L
263.96 374 L
cp
f
GR
GS
[0.75 0 0 0.75 0 0] CT
0.4 0.668 0.845 RC
N
263.96 374 M
263.96 374 L
272.64 374 L
272.64 374 L
cp
f
GR
GS
[0.75 0 0 0.75 0 0] CT
0.4 0.668 0.845 RC
N
272.64 374 M
272.64 373.142 L
281.32 373.142 L
281.32 374 L
cp
f
GR
GS
[0.75 0 0 0.75 0 0] CT
0.4 0.668 0.845 RC
N
281.32 374 M
281.32 374 L
290 374 L
290 374 L
cp
f
GR
GS
[0.75 0 0 0.75 0 0] CT
0.4 0.668 0.845 RC
N
290 374 M
290 372.285 L
298.68 372.285 L
298.68 374 L
cp
f
GR
GS
[0.75 0 0 0.75 0 0] CT
0.4 0.668 0.845 RC
N
298.68 374 M
298.68 374 L
307.36 374 L
307.36 374 L
cp
f
GR
GS
[0.75 0 0 0.75 0 0] CT
0.4 0.668 0.845 RC
N
307.36 374 M
307.36 373.142 L
316.04 373.142 L
316.04 374 L
cp
f
GR
GS
[0.75 0 0 0.75 0 0] CT
0.4 0.668 0.845 RC
N
316.04 374 M
316.04 374 L
324.72 374 L
324.72 374 L
cp
f
GR
GS
[0.75 0 0 0.75 0 0] CT
0.4 0.668 0.845 RC
N
324.72 374 M
324.72 374 L
333.4 374 L
333.4 374 L
cp
f
GR
GS
[0.75 0 0 0.75 0 0] CT
0.4 0.668 0.845 RC
N
333.4 374 M
333.4 374 L
342.08 374 L
342.08 374 L
cp
f
GR
GS
[0.75 0 0 0.75 0 0] CT
0.4 0.668 0.845 RC
N
342.08 374 M
342.08 374 L
350.76 374 L
350.76 374 L
cp
f
GR
GS
[0.75 0 0 0.75 0 0] CT
0.4 0.668 0.845 RC
N
350.76 374 M
350.76 373.142 L
359.44 373.142 L
359.44 374 L
cp
f
GR
GS
[0.75 0 0 0.75 0 0] CT
0.4 0.668 0.845 RC
N
359.44 374 M
359.44 374 L
368.12 374 L
368.12 374 L
cp
f
GR
GS
[0.75 0 0 0.75 0 0] CT
0.4 0.668 0.845 RC
N
368.12 374 M
368.12 374 L
376.8 374 L
376.8 374 L
cp
f
GR
GS
[0.75 0 0 0.75 0 0] CT
0.4 0.668 0.845 RC
N
376.8 374 M
376.8 374 L
385.48 374 L
385.48 374 L
cp
f
GR
GS
[0.75 0 0 0.75 0 0] CT
0.4 0.668 0.845 RC
N
385.48 374 M
385.48 373.142 L
394.16 373.142 L
394.16 374 L
cp
f
GR
GS
[0.75 0 0 0.75 0 0] CT
0.4 0.668 0.845 RC
N
394.16 374 M
394.16 374 L
402.84 374 L
402.84 374 L
cp
f
GR
GS
[0.75 0 0 0.75 0 0] CT
0.4 0.668 0.845 RC
N
402.84 374 M
402.84 373.142 L
411.52 373.142 L
411.52 374 L
cp
f
GR
GS
[0.75 0 0 0.75 0 0] CT
0.4 0.668 0.845 RC
N
411.52 374 M
411.52 372.285 L
420.2 372.285 L
420.2 374 L
cp
f
GR
GS
[0.75 0 0 0.75 0 0] CT
0.4 0.668 0.845 RC
N
420.2 374 M
420.2 374 L
428.88 374 L
428.88 374 L
cp
f
GR
GS
[0.75 0 0 0.75 0 0] CT
0.4 0.668 0.845 RC
N
428.88 374 M
428.88 374 L
437.56 374 L
437.56 374 L
cp
f
GR
GS
[0.75 0 0 0.75 0 0] CT
0.4 0.668 0.845 RC
N
437.56 374 M
437.56 374 L
446.24 374 L
446.24 374 L
cp
f
GR
GS
[0.75 0 0 0.75 0 0] CT
0.4 0.668 0.845 RC
N
446.24 374 M
446.24 374 L
454.92 374 L
454.92 374 L
cp
f
GR
GS
[0.75 0 0 0.75 0 0] CT
0.4 0.668 0.845 RC
N
454.92 374 M
454.92 373.142 L
463.6 373.142 L
463.6 374 L
cp
f
GR
GS
[0.75 0 0 0.75 0 0] CT
0.4 0.668 0.845 RC
N
463.6 374 M
463.6 371.427 L
472.28 371.427 L
472.28 374 L
cp
f
GR
GS
[0.75 0 0 0.75 0 0] CT
0.4 0.668 0.845 RC
N
472.28 374 M
472.28 374 L
480.96 374 L
480.96 374 L
cp
f
GR
GS
[0.75 0 0 0.75 0 0] CT
0.4 0.668 0.845 RC
N
480.96 374 M
480.96 374 L
489.64 374 L
489.64 374 L
cp
f
GR
GS
[0.75 0 0 0.75 0 0] CT
0.4 0.668 0.845 RC
N
489.64 374 M
489.64 374 L
498.32 374 L
498.32 374 L
cp
f
GR
GS
[0.75 0 0 0.75 0 0] CT
0.4 0.668 0.845 RC
N
498.32 374 M
498.32 365.425 L
507 365.425 L
507 374 L
cp
f
GR
GS
[0.75 0 0 0.75 0 0] CT
2 setlinecap
10.0 ML
N
73 374 M
73 41.29 L
81.68 41.29 L
81.68 374 L
S
GR
GS
[0.75 0 0 0.75 0 0] CT
2 setlinecap
10.0 ML
N
81.68 374 M
81.68 351.705 L
90.36 351.705 L
90.36 374 L
S
GR
GS
[0.75 0 0 0.75 0 0] CT
2 setlinecap
10.0 ML
N
90.36 374 M
90.36 361.995 L
99.04 361.995 L
99.04 374 L
S
GR
GS
[0.75 0 0 0.75 0 0] CT
2 setlinecap
10.0 ML
N
99.04 374 M
99.04 367.997 L
107.72 367.997 L
107.72 374 L
S
GR
GS
[0.75 0 0 0.75 0 0] CT
2 setlinecap
10.0 ML
N
107.72 374 M
107.72 369.712 L
116.4 369.712 L
116.4 374 L
S
GR
GS
[0.75 0 0 0.75 0 0] CT
2 setlinecap
10.0 ML
N
116.4 374 M
116.4 367.14 L
125.08 367.14 L
125.08 374 L
S
GR
GS
[0.75 0 0 0.75 0 0] CT
2 setlinecap
10.0 ML
N
125.08 374 M
125.08 368.855 L
133.76 368.855 L
133.76 374 L
S
GR
GS
[0.75 0 0 0.75 0 0] CT
2 setlinecap
10.0 ML
N
133.76 374 M
133.76 369.712 L
142.44 369.712 L
142.44 374 L
S
GR
GS
[0.75 0 0 0.75 0 0] CT
2 setlinecap
10.0 ML
N
142.44 374 M
142.44 373.142 L
151.12 373.142 L
151.12 374 L
S
GR
GS
[0.75 0 0 0.75 0 0] CT
2 setlinecap
10.0 ML
N
151.12 374 M
151.12 370.57 L
159.8 370.57 L
159.8 374 L
S
GR
GS
[0.75 0 0 0.75 0 0] CT
2 setlinecap
10.0 ML
N
159.8 374 M
159.8 373.142 L
168.48 373.142 L
168.48 374 L
S
GR
GS
[0.75 0 0 0.75 0 0] CT
2 setlinecap
10.0 ML
N
168.48 374 M
168.48 372.285 L
177.16 372.285 L
177.16 374 L
S
GR
GS
[0.75 0 0 0.75 0 0] CT
2 setlinecap
10.0 ML
N
177.16 374 M
177.16 373.142 L
185.84 373.142 L
185.84 374 L
S
GR
GS
[0.75 0 0 0.75 0 0] CT
2 setlinecap
10.0 ML
N
185.84 374 M
185.84 373.142 L
194.52 373.142 L
194.52 374 L
S
GR
GS
[0.75 0 0 0.75 0 0] CT
2 setlinecap
10.0 ML
N
194.52 374 M
194.52 373.142 L
203.2 373.142 L
203.2 374 L
S
GR
GS
[0.75 0 0 0.75 0 0] CT
2 setlinecap
10.0 ML
N
203.2 374 M
203.2 372.285 L
211.88 372.285 L
211.88 374 L
S
GR
GS
[0.75 0 0 0.75 0 0] CT
2 setlinecap
10.0 ML
N
211.88 374 M
211.88 374 L
220.56 374 L
220.56 374 L
S
GR
GS
[0.75 0 0 0.75 0 0] CT
2 setlinecap
10.0 ML
N
220.56 374 M
220.56 374 L
229.24 374 L
229.24 374 L
S
GR
GS
[0.75 0 0 0.75 0 0] CT
2 setlinecap
10.0 ML
N
229.24 374 M
229.24 373.142 L
237.92 373.142 L
237.92 374 L
S
GR
GS
[0.75 0 0 0.75 0 0] CT
2 setlinecap
10.0 ML
N
237.92 374 M
237.92 373.142 L
246.6 373.142 L
246.6 374 L
S
GR
GS
[0.75 0 0 0.75 0 0] CT
2 setlinecap
10.0 ML
N
246.6 374 M
246.6 373.142 L
255.28 373.142 L
255.28 374 L
S
GR
GS
[0.75 0 0 0.75 0 0] CT
2 setlinecap
10.0 ML
N
255.28 374 M
255.28 372.285 L
263.96 372.285 L
263.96 374 L
S
GR
GS
[0.75 0 0 0.75 0 0] CT
2 setlinecap
10.0 ML
N
263.96 374 M
263.96 374 L
272.64 374 L
272.64 374 L
S
GR
GS
[0.75 0 0 0.75 0 0] CT
2 setlinecap
10.0 ML
N
272.64 374 M
272.64 373.142 L
281.32 373.142 L
281.32 374 L
S
GR
GS
[0.75 0 0 0.75 0 0] CT
2 setlinecap
10.0 ML
N
281.32 374 M
281.32 374 L
290 374 L
290 374 L
S
GR
GS
[0.75 0 0 0.75 0 0] CT
2 setlinecap
10.0 ML
N
290 374 M
290 372.285 L
298.68 372.285 L
298.68 374 L
S
GR
GS
[0.75 0 0 0.75 0 0] CT
2 setlinecap
10.0 ML
N
298.68 374 M
298.68 374 L
307.36 374 L
307.36 374 L
S
GR
GS
[0.75 0 0 0.75 0 0] CT
2 setlinecap
10.0 ML
N
307.36 374 M
307.36 373.142 L
316.04 373.142 L
316.04 374 L
S
GR
GS
[0.75 0 0 0.75 0 0] CT
2 setlinecap
10.0 ML
N
316.04 374 M
316.04 374 L
324.72 374 L
324.72 374 L
S
GR
GS
[0.75 0 0 0.75 0 0] CT
2 setlinecap
10.0 ML
N
324.72 374 M
324.72 374 L
333.4 374 L
333.4 374 L
S
GR
GS
[0.75 0 0 0.75 0 0] CT
2 setlinecap
10.0 ML
N
333.4 374 M
333.4 374 L
342.08 374 L
342.08 374 L
S
GR
GS
[0.75 0 0 0.75 0 0] CT
2 setlinecap
10.0 ML
N
342.08 374 M
342.08 374 L
350.76 374 L
350.76 374 L
S
GR
GS
[0.75 0 0 0.75 0 0] CT
2 setlinecap
10.0 ML
N
350.76 374 M
350.76 373.142 L
359.44 373.142 L
359.44 374 L
S
GR
GS
[0.75 0 0 0.75 0 0] CT
2 setlinecap
10.0 ML
N
359.44 374 M
359.44 374 L
368.12 374 L
368.12 374 L
S
GR
GS
[0.75 0 0 0.75 0 0] CT
2 setlinecap
10.0 ML
N
368.12 374 M
368.12 374 L
376.8 374 L
376.8 374 L
S
GR
GS
[0.75 0 0 0.75 0 0] CT
2 setlinecap
10.0 ML
N
376.8 374 M
376.8 374 L
385.48 374 L
385.48 374 L
S
GR
GS
[0.75 0 0 0.75 0 0] CT
2 setlinecap
10.0 ML
N
385.48 374 M
385.48 373.142 L
394.16 373.142 L
394.16 374 L
S
GR
GS
[0.75 0 0 0.75 0 0] CT
2 setlinecap
10.0 ML
N
394.16 374 M
394.16 374 L
402.84 374 L
402.84 374 L
S
GR
GS
[0.75 0 0 0.75 0 0] CT
2 setlinecap
10.0 ML
N
402.84 374 M
402.84 373.142 L
411.52 373.142 L
411.52 374 L
S
GR
GS
[0.75 0 0 0.75 0 0] CT
2 setlinecap
10.0 ML
N
411.52 374 M
411.52 372.285 L
420.2 372.285 L
420.2 374 L
S
GR
GS
[0.75 0 0 0.75 0 0] CT
2 setlinecap
10.0 ML
N
420.2 374 M
420.2 374 L
428.88 374 L
428.88 374 L
S
GR
GS
[0.75 0 0 0.75 0 0] CT
2 setlinecap
10.0 ML
N
428.88 374 M
428.88 374 L
437.56 374 L
437.56 374 L
S
GR
GS
[0.75 0 0 0.75 0 0] CT
2 setlinecap
10.0 ML
N
437.56 374 M
437.56 374 L
446.24 374 L
446.24 374 L
S
GR
GS
[0.75 0 0 0.75 0 0] CT
2 setlinecap
10.0 ML
N
446.24 374 M
446.24 374 L
454.92 374 L
454.92 374 L
S
GR
GS
[0.75 0 0 0.75 0 0] CT
2 setlinecap
10.0 ML
N
454.92 374 M
454.92 373.142 L
463.6 373.142 L
463.6 374 L
S
GR
GS
[0.75 0 0 0.75 0 0] CT
2 setlinecap
10.0 ML
N
463.6 374 M
463.6 371.427 L
472.28 371.427 L
472.28 374 L
S
GR
GS
[0.75 0 0 0.75 0 0] CT
2 setlinecap
10.0 ML
N
472.28 374 M
472.28 374 L
480.96 374 L
480.96 374 L
S
GR
GS
[0.75 0 0 0.75 0 0] CT
2 setlinecap
10.0 ML
N
480.96 374 M
480.96 374 L
489.64 374 L
489.64 374 L
S
GR
GS
[0.75 0 0 0.75 0 0] CT
2 setlinecap
10.0 ML
N
489.64 374 M
489.64 374 L
498.32 374 L
498.32 374 L
S
GR
GS
[0.75 0 0 0.75 0 0] CT
2 setlinecap
10.0 ML
N
498.32 374 M
498.32 365.425 L
507 365.425 L
507 374 L
S
GR
GS
[0.75 0 0 0.75 217.50021 21.1875] CT
/Helvetica-Bold 15 F
GS
[1 0 0 1 0 0] CT
-113 -4 moveto 
1 -1 scale
(Observed FDP for marginal test) t 
GR
GR
%%Trailer
%%Pages: 1
%%EOF
