\relax 
\citation{benjamini1995controlling}
\citation{benjamini1995controlling}
\@writefile{toc}{\contentsline {subsection}{\numberline {\unhbox \voidb@x \hbox {-A}}Multiple testing problem}{1}}
\@writefile{toc}{\contentsline {subsection}{\numberline {\unhbox \voidb@x \hbox {-B}}FWER Error Control}{1}}
\citation{benjamini1995controlling}
\citation{benjamini1995controlling}
\citation{benjamini1995controlling}
\citation{benjamini1995controlling}
\citation{colquhoun2014investigation}
\newlabel{table1}{{\unhbox \voidb@x \hbox {-B}}{2}}
\@writefile{toc}{\contentsline {subsection}{\numberline {\unhbox \voidb@x \hbox {-C}}FDR Control}{2}}
\citation{bogdan2013statistical}
\citation{bogdan2013statistical}
\citation{bogdan2013statistical}
\citation{bogdan2013statistical}
\citation{bogdan2013statistical}
\citation{benjamini1995controlling}
\citation{bogdan2013statistical}
\citation{bogdan2013statistical}
\citation{barber2014controlling}
\citation{barber2014controlling}
\citation{benjamini1995controlling}
\citation{barber2014controlling}
\citation{barber2014controlling}
\citation{benjamini1995controlling}
\citation{bogdan2013statistical}
\citation{mestre2006finite}
\citation{bogdan2013statistical}
\citation{mestre2006finite}
\citation{mestre2006finite}
\citation{girko2012theory}
\citation{mestre2006finite}
\newlabel{main}{{8}{10}}
\citation{bogdan2013statistical}
\citation{bogdan2013statistical}
\citation{bogdan2013statistical}
\citation{bogdan2013statistical}
\bibstyle{IEEEtran}
\bibdata{biblio}
\bibcite{benjamini1995controlling}{1}
\bibcite{colquhoun2014investigation}{2}
\bibcite{bogdan2013statistical}{3}
\bibcite{barber2014controlling}{4}
\bibcite{mestre2006finite}{5}
\bibcite{girko2012theory}{6}
\@writefile{toc}{\contentsline {section}{References}{13}}
\@writefile{lof}{\contentsline {figure}{\numberline {1}{\ignorespaces FDR\relax }}{13}}
\@writefile{lof}{\contentsline {figure}{\numberline {2}{\ignorespaces Standard Deviation of FDP\relax }}{14}}
\@writefile{lof}{\contentsline {figure}{\numberline {3}{\ignorespaces Power of both procedures\relax }}{15}}
\@writefile{lof}{\contentsline {figure}{\numberline {4}{\ignorespaces Observed FDP marginal\relax }}{16}}
\@writefile{lof}{\contentsline {figure}{\numberline {5}{\ignorespaces Observed TPP marginal\relax }}{17}}
\@writefile{lof}{\contentsline {figure}{\numberline {6}{\ignorespaces Observed FDP SLOPE\relax }}{18}}
\@writefile{lof}{\contentsline {figure}{\numberline {7}{\ignorespaces Observed TPP SLOPE\relax }}{19}}
